{
    "KPlugin": {
        "Category": "Accessibility",
        "Description": "Hide mouse cursor on inactivity or keyboard input",
        "Description[ar]": "إخفاء مؤشر الفأرة عند عدم النشاط أو كتابة بلوحة المفاتيح",
        "Description[be]": "Хаваць курсор мышы пры бяздзейнасці або ўводзе з клавіятуры",
        "Description[bg]": "Скриване показалеца на мишката при бездействие или при въвеждане от клавиатурата",
        "Description[ca@valencia]": "Oculta el cursor del ratolí per inactivitat o per entrada de teclat",
        "Description[ca]": "Oculta el cursor del ratolí per inactivitat o per entrada de teclat",
        "Description[da]": "Skjul markøren ved inaktivitet eller tastaturinput",
        "Description[en_GB]": "Hide mouse cursor on inactivity or keyboard input",
        "Description[eo]": "Kaŝi muskursoron je neaktiveco aŭ klavara enigo",
        "Description[es]": "Ocultar el cursor del ratón cuando no haya actividad o al usar el teclado",
        "Description[eu]": "Ezkutatu saguaren kurtsorea jarduerarik ez dagoenean edo teklatuaren sarrera dagoenean",
        "Description[fi]": "Piilota hiiriosoitin passiivisena tai näppäiltäessä",
        "Description[fr]": "Masquer le pointeur de la souris en l'absence d'activités ou d'évènements de clavier",
        "Description[gl]": "Agochar o cursor en caso de inactividade ou entrada do teclado.",
        "Description[he]": "להסתיר את סמן העכבר בהעדר פעילות או קלט מקלדת",
        "Description[hu]": "Egérmutató elrejtése inaktivitás vagy billentyűzet-bevitel esetén",
        "Description[ia]": "Cela cursor de mus sur inactivitate o ingresso de claviero",
        "Description[id]": "Sembunyikan kursor mouse saat tidak aktif atau input keyboard",
        "Description[is]": "Fela músarbendil við aðgerðaleysi eða innslátt",
        "Description[it]": "Nascondi il puntatore del mouse in caso di inattività o inserimento da tastiera",
        "Description[ka]": "თაგუნას კურსორის დამალვა კლავიატურიდან შეყვანისას ან უქმეობისას",
        "Description[ko]": "활동 중단이나 키보드 입력 시 마우스 숨기기",
        "Description[lt]": "Slėpti pelės žymeklį neveiklumo metu ar rašant klaviatūra",
        "Description[lv]": "Slēpt peles kursoru dīkstāves laikā un lietojot tastatūru",
        "Description[nl]": "Muisaanwijzer verbergen bij inactiviteit of invoer van het toetsenbord",
        "Description[nn]": "Gøym peikaren ved inaktivitet eller skriving",
        "Description[pl]": "Ukryj wskaźnik myszy przy bezruchu lub wpisaniu z klawiatury",
        "Description[pt_BR]": "Ocultar o cursor do mouse em caso de inatividade ou entrada do teclado",
        "Description[ru]": "Сокрытие курсора мыши при простое или вводе с клавиатуры",
        "Description[sl]": "Skrij miškino kazalko pri nedejavnosti ali vnosu s tipkovnice",
        "Description[sv]": "Dölj muspekaren vid inaktivitet eller tangentbordsinmatning",
        "Description[ta]": "ஒன்றும் செய்யாதபோதோ தட்டச்சிடும்போதோ சுட்டிக்குறியை மறைப்பது",
        "Description[tr]": "Hareketsizlikte veya klavye girişinde fare imlecini gizle",
        "Description[uk]": "Приховати вказівник миші при бездіяльності або введенні з клавіатури",
        "Description[x-test]": "xxHide mouse cursor on inactivity or keyboard inputxx",
        "Description[zh_CN]": "闲置或者键盘输入时隐藏鼠标光标",
        "Description[zh_TW]": "在沒有動作或是有鍵盤輸入時隱藏滑鼠游標",
        "EnabledByDefault": false,
        "License": "GPL",
        "Name": "Hide Cursor",
        "Name[ar]": "إخفاء المؤشر",
        "Name[be]": "Хаваць курсор",
        "Name[bg]": "Скриване показалеца на мишката",
        "Name[ca@valencia]": "Oculta el cursor",
        "Name[ca]": "Oculta el cursor",
        "Name[cs]": "Skrýt kurzor",
        "Name[da]": "Skjul markør",
        "Name[en_GB]": "Hide Cursor",
        "Name[eo]": "Kaŝi Kursoron",
        "Name[es]": "Ocultar el cursor",
        "Name[eu]": "Ezkutatu kurtsorea",
        "Name[fi]": "Piilota osoitin",
        "Name[fr]": "Masquer le pointeur",
        "Name[gl]": "Agochar o cursor",
        "Name[he]": "הסתרת סמן",
        "Name[hu]": "Kurzor elrejtése",
        "Name[ia]": "Cela Cursor",
        "Name[id]": "Sembunyikan Kursor",
        "Name[is]": "Fela bendil",
        "Name[it]": "Nascondi il puntatore",
        "Name[ka]": "კურსორის დამალვა",
        "Name[ko]": "커서 숨기기",
        "Name[lt]": "Slėpti žymeklį",
        "Name[lv]": "Paslēpt kursoru",
        "Name[nl]": "Cursor verbergen",
        "Name[nn]": "Gøym peikaren",
        "Name[pl]": "Ukryj wskaźnik myszy",
        "Name[pt_BR]": "Esconder cursor",
        "Name[ru]": "Сокрытие курсора",
        "Name[sl]": "Skrij kazalko",
        "Name[sv]": "Dölj markör",
        "Name[ta]": "சுட்டிக்குறியை மறை",
        "Name[tr]": "İmleci Gizle",
        "Name[uk]": "Приховувати вказівник",
        "Name[x-test]": "xxHide Cursorxx",
        "Name[zh_CN]": "隐藏光标",
        "Name[zh_TW]": "隱藏游標"
    },
    "X-KDE-ConfigModule": "kwin_hidecursor_config"
}
